…
``` r
region.info<-c("New York","NY")
#time 1800 08/04/17
getPrice_bycity(df.all,region.info)
```

    ## # A tibble: 22 x 4
    ## # Groups:   year, city [?]
    ##     year     city  state avg_price
    ##    <dbl>   <fctr> <fctr>     <dbl>
    ##  1  1996 New York     NY  162788.9
    ##  2  1997 New York     NY  171333.3
    ##  3  1998 New York     NY  179625.0
    ##  4  1999 New York     NY  193616.7
    ##  5  2000 New York     NY  221241.7
    ##  6  2001 New York     NY  247091.7
    ##  7  2002 New York     NY  233258.3
    ##  8  2003 New York     NY  263950.0
    ##  9  2004 New York     NY  359925.0
    ## 10  2005 New York     NY  414675.0
    ## # ... with 12 more rows
…
    ## Warning in bind_rows_(x, .id): binding character and factor vector,
    ## coercing into character vector

    ## Warning in bind_rows_(x, .id): binding character and factor vector,
    ## coercing into character vector

    ## Warning in bind_rows_(x, .id): binding character and factor vector,
    ## coercing into character vector

``` r
df.Ncities
```

    ## # A tibble: 110 x 4
    ## # Groups:   year, city [110]
    ##     year      city state avg_price
    ##    <dbl>     <chr> <chr>     <dbl>
    ##  1  1996 Princeton    NJ  237955.6
    ##  2  1997 Princeton    NJ  229283.3
    ##  3  1998 Princeton    NJ  242225.0
    ##  4  1999 Princeton    NJ  261733.3
    ##  5  2000 Princeton    NJ  294141.7
    ##  6  2001 Princeton    NJ  361375.0
    ##  7  2002 Princeton    NJ  393650.0
    ##  8  2003 Princeton    NJ  443600.0
    ##  9  2004 Princeton    NJ  480516.7
    ## 10  2005 Princeton    NJ  550833.3
    ## # ... with 100 more rows
…
